…
``` r
county_summary %>% 
  filter(!str_detect(county_fips, "NA")) %>% 
  arrange(desc(county_fires))
```

    ## # A tibble: 6,769 x 16
    ##    county_fips REPORT_YEAR year_fips bin_year county_fires county_acres
    ##    <chr>       <chr>       <glue>       <dbl>        <int>        <dbl>
    ##  1 16049       2006        -999_160…     -999           90      133211.
    ##  2 6105        2008        -999_6105     -999           82      270179.
    ##  3 16049       2003        -999_160…     -999           74      183826.
    ##  4 16085       2006        -999_160…     -999           73      134805.
    ##  5 16049       2007        -999_160…     -999           72      369956.
    ##  6 16049       2002        -999_160…     -999           63       20641.
    ##  7 16049       2012        2010_160…     2010           59      244628.
    ##  8 16049       2005        -999_160…     -999           57       80650.
    ##  9 16049       2013        2014_160…     2014           56       23808.
    ## 10 16049       2001        -999_160…     -999           41       34490 
    ## # … with 6,759 more rows, and 10 more variables: county_cost <dbl>,
    ## #   county_homes_destroyed <dbl>, county_homes_damaged <dbl>,
    ## #   county_homes_threatened <dbl>, county_personnel <dbl>,
    ## #   county_cost_per_acre <dbl>, county_median_acres <dbl>,
    ## #   county_median_cost <dbl>, destroyed_count <int>, threatened_count <int>
…
``` r
county_summary %>% 
  group_by(county_fips) %>% 
  summarize(destructive_fires = sum(destroyed_count)) %>% 
  filter(!str_detect(county_fips, "NA")) %>% 
  arrange(desc(destructive_fires))
```

    ## # A tibble: 1,675 x 2
    ##    county_fips destructive_fires
    ##    <chr>                   <int>
    ##  1 53007                      46
    ##  2 6105                       46
    ##  3 6063                       31
    ##  4 12105                      29
    ##  5 45075                      26
    ##  6 32007                      24
    ##  7 6065                       24
    ##  8 27115                      22
    ##  9 45025                      21
    ## 10 16039                      20
    ## # … with 1,665 more rows

``` r
sit_karen_mtbs %>% 
  filter(county_fips == "6105") # Trinity County California
```

    ## # A tibble: 121 x 90
    ##    REPORT_YEAR FORM_TYPE INTERNAL_DB_ID INCIDENT_NUMBER INCIDENT_NAME
    ##    <chr>       <chr>     <chr>          <chr>           <chr>        
    ##  1 1999        a         <NA>           CA-RCC-4578     LOWDEN (CA-S…
    ##  2 2006        b         <NA>           CA-SRF-000999   PANTHER      
    ##  3 2006        b         <NA>           CA-SHF-2120     PIGEON       
    ##  4 2006        b         <NA>           CA-SHF-001693   BAR COMPLEX  
    ##  5 2006        b         <NA>           CA-MNF-897      KINGSLEY COM…
    ##  6 2006        b         <NA>           CA-MNF-897      KINGSLEY COM…
    ##  7 2007        b         <NA>           CA-MNF-1050     YOLLA BOLLY …
    ##  8 2007        b         <NA>           CA-MNF-1050     YOLLA BOLLY …
    ##  9 2007        b         <NA>           CA-MNF-1050     YOLLA BOLLY …
    ## 10 2007        b         <NA>           CA-MNF-1050     YOLLA BOLLY …
    ## # … with 111 more rows, and 85 more variables: INCIDENT_TYPE <chr>,
    ## #   STATE.x <chr>, COUNTY.x <chr>, LATITUDE.x <dbl>, LONGITUDE.x <dbl>,
    ## #   START_DATE <chr>, END_DATE <chr>, CAUSE <chr>, ESTIMATED_COST <dbl>,
    ## #   REPORT_DATE <dttm>, MAX_PERSONNEL <dbl>, INCIDENT_AREA <dbl>,
    ## #   MAX_SFR_THREAT <dbl>, MAX_MFR_THREAT <dbl>, MAX_MU_THREAT <dbl>,
    ## #   MAX_COMM_THREAT <dbl>, MAX_OUTB_THREAT <dbl>, MAX_OTHER_THREAT <dbl>,
    ## #   SFR_DAMAGED <dbl>, MFR_DAMAGED <dbl>, MU_DAMAGED <dbl>, COMM_DAMAGED <dbl>,
    ## #   OTHER_DAMAGED <dbl>, SFR_DESTROYED <dbl>, MFR_DESTROYED <dbl>,
    ## #   MU_DESTROYED <dbl>, COMM_DESTROYED <dbl>, OUTB_DESTROYED <dbl>,
…
