…
Well, there are a few, but we can go back to clear these up later.

``` r
sit209 %>% 
  count(INCIDENT_NUMBER, COUNTY, sort = TRUE)
```

    ## # A tibble: 33,159 x 3
    ##    INCIDENT_NUMBER COUNTY        n
    ##    <chr>           <chr>     <int>
    ##  1 TX-MCR-000001   JEFFERSON     4
    ##  2 000001          23.0          3
    ##  3 000126          17.0          3
    ##  4 000247          53.0          3
    ##  5 001234          65.0          3
    ##  6 100165          15.0          3
    ##  7 14-0075269      111.0         3
    ##  8 170143          21.0          3
    ##  9 AK-TAD-000164   <NA>          3
    ## 10 AK-TAD-000372   <NA>          3
    ## # … with 33,149 more rows
…
Let’s see which counties were the hardest hit, by different metrics.

Most homes destroyed:

``` r
joined_summarized %>% 
  group_by(NAME, STATE) %>% 
  summarize(total_homes_destroyed = sum(total_homes_destroyed, na.rm = TRUE)) %>% 
  arrange(desc(total_homes_destroyed))
```

    ## # A tibble: 852 x 3
    ## # Groups:   NAME [645]
    ##    NAME           STATE total_homes_destroyed
    ##    <chr>          <chr>                 <dbl>
    ##  1 Butte          CA                    13848
    ##  2 Sonoma         CA                     5455
    ##  3 Ventura        CA                     2031
    ##  4 San Diego      CA                     1836
    ##  5 Bastrop        TX                     1760
    ##  6 Lake           CA                     1536
    ##  7 Shasta         CA                     1128
    ##  8 El Paso        CO                      880
    ##  9 San Bernardino CA                      625
    ## 10 Santa Barbara  CA                      567
    ## # … with 842 more rows

Most personnel sent to fires that destroyed homes:

``` r
joined_summarized %>% 
  group_by(NAME, STATE) %>% 
  summarize(total_personnel = sum(total_personnel, na.rm = TRUE)) %>% 
  arrange(desc(total_personnel))
```

    ## # A tibble: 852 x 3
    ## # Groups:   NAME [645]
    ##    NAME           STATE total_personnel
    ##    <chr>          <chr>           <dbl>
    ##  1 Los Angeles    CA              31505
    ##  2 Ventura        CA              22188
    ##  3 Lake           CA              19076
    ##  4 San Bernardino CA              18654
    ##  5 Butte          CA              18510
    ##  6 Kern           CA              16675
    ##  7 Shasta         CA              16297
    ##  8 Trinity        CA              16248
    ##  9 San Diego      CA              15166
    ## 10 Riverside      CA              14700
    ## # … with 842 more rows

Most money spent on fires that destroyed homes:

``` r
joined_summarized %>% 
  group_by(NAME, STATE) %>% 
  summarize(total_cost = sum(total_cost, na.rm = TRUE)) %>% 
  arrange(desc(total_cost))
```

    ## # A tibble: 852 x 3
    ## # Groups:   NAME [645]
    ##    NAME      STATE total_cost
    ##    <chr>     <chr>      <dbl>
    ##  1 Shasta    CA     343301206
    ##  2 Ventura   CA     320121535
    ##  3 Lake      CA     209356374
    ##  4 Box Elder CO     200000000
    ##  5 Trinity   CA     167950386
    ##  6 Kern      CA     167082463
    ##  7 Butte     CA     166750630
    ##  8 Monterey  CA     138500000
    ##  9 Plumas    CA     135000000
    ## 10 Mariposa  CA     134521628
    ## # … with 842 more rows
…
