…
``` r
close_fires %>% 
  count(COUNTY.x, ST_ABBR.x, Year, RPL_THEMES.x) %>% 
  arrange(desc(RPL_THEMES.x))
```

    ## Simple feature collection with 26 features and 5 fields
    ## geometry type:  POINT
    ## dimension:      XY
    ## bbox:           xmin: -156.2317 ymin: 27.12567 xmax: -81.6852 ymax: 65.34145
    ## epsg (SRID):    4269
    ## proj4string:    +proj=longlat +ellps=GRS80 +towgs84=0,0,0,0,0,0,0 +no_defs
    ## # A tibble: 26 x 6
    ##    COUNTY.x    ST_ABBR.x  Year RPL_THEMES.x     n             geometry
    ##    <chr>       <chr>     <dbl>        <dbl> <int>          <POINT [°]>
    ##  1 Navajo      AZ         2002        0.986     1 (-110.3322 34.10914)
    ##  2 Douglas     NV         2012        0.979     1 (-119.5861 38.81799)
    ##  3 Douglas     NV         2017        0.979     1 (-119.5861 38.81799)
    ##  4 Lake        CA         1992        0.979     1 (-122.6479 38.98589)
    ##  5 Yakima      WA         2000        0.974     1 (-120.0101 46.11277)
    ##  6 Swisher     TX         2017        0.969     1 (-101.7726 34.52627)
    ##  7 Presidio    TX         2009        0.963     1 (-104.2916 30.17582)
    ##  8 Graham      AZ         2012        0.962     1 (-109.9475 33.27597)
    ##  9 Los Angeles CA         2008        0.960     1 (-118.3955 34.28933)
    ## 10 Los Angeles CA         2017        0.960     1 (-118.3955 34.28933)
    ## # … with 16 more rows
…
