…
    ## # A tibble: 2 x 2
    ##   `is.na(COUNTY)`     n
    ##   <lgl>           <int>
    ## 1 FALSE            4725
    ## 2 TRUE              257

When county is recorded in the data, it’s either in the form of the
county name or the fips codes. In a few cases, more than one county is
listed.

``` r
sit209 %>% count(COUNTY, STATE, sort = TRUE) %>% drop_na(COUNTY)
```

    ## # A tibble: 4,083 x 3
    ##    COUNTY         STATE     n
    ##    <chr>          <chr> <int>
    ##  1 RIVERSIDE      CA      412
    ##  2 IDAHO          ID      367
    ##  3 290.0          AK      296
    ##  4 113.0          OK      208
    ##  5 PITTSBURG      OK      208
    ##  6 SAN DIEGO      CA      204
    ##  7 49.0           ID      173
    ##  8 COCONINO       AZ      167
    ##  9 SAN BERNARDINO CA      162
    ## 10 LATIMER        OK      161
    ## # … with 4,073 more rows
…
    ## although coordinates are longitude/latitude, st_difference assumes that they are planar

    ## Warning: attribute variables are assumed to be spatially constant throughout all
    ## geometries

    ## Simple feature collection with 159 features and 3 fields
    ## geometry type:  GEOMETRY
    ## dimension:      XY
    ## bbox:           xmin: -177.2667 ymin: 3.035 xmax: -0.8025 ymax: 66.94611
    ## epsg (SRID):    4269
    ## proj4string:    +proj=longlat +ellps=GRS80 +towgs84=0,0,0,0,0,0,0 +no_defs
    ## # A tibble: 159 x 4
    ##    INCIDENT_NAME     INCIDENT_NUMBER     n                              geometry
    ##    <chr>             <chr>           <int>                        <GEOMETRY [°]>
    ##  1 BARRETT           CA-MVU-001494       2 MULTIPOINT ((-116.6858 32.11694), (-…
    ##  2 BUZZ              CA-NOD-2261         2 MULTIPOINT ((-119.865 41.415), (-119…
    ##  3 ALAMO             007624              1            POINT (-82.32333 30.57444)
    ##  4 ALPHA 1           000928              1              POINT (-119.5132 45.051)
    ##  5 APACHE            000994              1            POINT (-84.25111 36.15278)
    ##  6 ATLAS             010046              1            POINT (-112.6906 47.02083)
    ##  7 BAJA CALIFORNIA-… CA-MVU-5394         1            POINT (-115.3167 30.86667)
    ##  8 BARREL            CA-NOD-3444         1            POINT (-119.9167 41.93667)
    ##  9 BATTLE            000415              1            POINT (-105.0982 36.79217)
    ## 10 BEALE             021927              1            POINT (-93.25139 35.55833)
    ## # … with 149 more rows
…
    ## # A tibble: 1 x 2
    ##   INTERNAL_DB_ID     n
    ##   <chr>          <int>
    ## 1 <NA>           24649

Fires with the same `REPORT_ID` appear multiple times in the data:

``` r
sit209 %>% 
  count(REPORT_ID, sort = TRUE) %>% 
  filter(n > 1)
```

    ## # A tibble: 955 x 2
    ##    REPORT_ID         n
    ##    <chr>         <int>
    ##  1 AR-ARS-D7         6
    ##  2 LA-KIF-           4
    ##  3 MA-MAS-000001     4
    ##  4 MI-MIS-001        4
    ##  5 MN-MNS-           4
    ##  6 MO-MTF-000045     4
    ##  7 MO-MTF-000050     4
    ##  8 ND-NDS-001        4
    ##  9 NM-GNF-005        4
    ## 10 NM-N5S-           4
    ## # … with 945 more rows

Even combinations of `INCIDENT_NUMBER`, `COUNTY` and `REPORT_DATE` are
not unique.

``` r
sit209 %>% 
  count(INCIDENT_NUMBER, COUNTY, REPORT_DATE, sort = TRUE) %>% 
  filter(n > 1)
```

    ## # A tibble: 53 x 4
    ##    INCIDENT_NUMBER COUNTY REPORT_DATE             n
    ##    <chr>           <chr>  <dttm>              <int>
    ##  1 000122          27.0   2016-04-08 09:00:00     2
    ##  2 000160          1.0    2016-06-23 17:00:00     2
    ##  3 000163          1.0    2015-10-27 07:00:00     2
    ##  4 000207          71.0   2015-09-07 22:00:00     2
    ##  5 000224          240.0  2015-07-27 23:00:00     2
    ##  6 000336          139.0  2016-11-25 16:00:00     2
    ##  7 000573          290.0  2015-07-28 03:00:00     2
    ##  8 000800          79.0   2015-09-15 17:00:00     2
    ##  9 001046          375.0  2016-12-30 22:00:00     2
    ## 10 001159          1.0    2015-10-19 20:00:00     2
    ## # … with 43 more rows
…
Data quality is also suspect at times. Even though some of the following
examples can be weeded out because they are outliers, other inaccuracies
are plausibly incorrect and therefore harder to identify, given that
most fires in SIT-209 are small but a few are extremely large and
costly.

``` r
sit209 %>% 
  filter(WILDFIRE == TRUE) %>% 
  arrange(desc(INCIDENT_AREA)) %>% 
  head(100) %>% 
  filter(DESTROYED == FALSE)
```

    ## # A tibble: 54 x 42
    ##    REPORT_YEAR FORM_TYPE INTERNAL_DB_ID INCIDENT_NUMBER INCIDENT_NAME
    ##    <chr>       <chr>     <chr>          <chr>           <chr>        
    ##  1 2006        b         <NA>           CA-SQF-2511     BRODER/BECK  
    ##  2 2012        b         <NA>           OR-VAD-193      JUNIPER CREEK
    ##  3 2009        b         <NA>           CA-YNP-2968     WILDCAT      
    ##  4 2013        c         <NA>           CO-RMP-217      BIG MEADOWS  
    ##  5 2011        b         <NA>           AZ-NAA-0023     SHIPROCK-5   
    ##  6 2012        b         <NA>           WY-SH1X-12192   PUSSAIC COMP…
    ##  7 2003        b         <NA>           WY-MB2-081      GRAMM COMPLEX
    ##  8 2008        b         <NA>           CA-INF-282      HONEY BEE    
    ##  9 2011        b         <NA>           NV-EKD-001337   CHUKKAR CANY…
    ## 10 2002        b         <NA>           WY-BTF-014      MULE         
    ## # … with 44 more rows, and 37 more variables: INCIDENT_TYPE <chr>, STATE <chr>,
    ## #   COUNTY <chr>, LATITUDE <dbl>, LONGITUDE <dbl>, START_DATE <chr>,
    ## #   END_DATE <chr>, CAUSE <chr>, ESTIMATED_COST <dbl>, REPORT_DATE <dttm>,
    ## #   MAX_PERSONNEL <dbl>, INCIDENT_AREA <dbl>, MAX_SFR_THREAT <dbl>,
    ## #   MAX_MFR_THREAT <dbl>, MAX_MU_THREAT <dbl>, MAX_COMM_THREAT <dbl>,
    ## #   MAX_OUTB_THREAT <dbl>, MAX_OTHER_THREAT <dbl>, SFR_DAMAGED <dbl>,
    ## #   MFR_DAMAGED <dbl>, MU_DAMAGED <dbl>, COMM_DAMAGED <dbl>,
    ## #   OTHER_DAMAGED <dbl>, SFR_DESTROYED <dbl>, MFR_DESTROYED <dbl>,
    ## #   MU_DESTROYED <dbl>, COMM_DESTROYED <dbl>, OUTB_DESTROYED <dbl>,
…
